…
#> [1] "error at iteration 229 : 0.00108261051283254"
#> [1] "error at iteration 230 : 0.00106093932041595"
#> [1] "error at iteration 231 : 0.00103970212784787"
#> [1] "error at iteration 232 : 0.00101889023969903"
#> [1] "error at iteration 233 : 0.000998495134831856"
lm_opt_GD
#> $beta_hat
#>             Dep.var
#> Intercept 4.9681878
#> .Reg1     0.5271015
#> Reg.2     0.2064352
#> Reg3.     0.1019163
#> 
#> $Y
#> # A tibble: 1,000 x 1
#>    Dep.var
#>      <dbl>
#>  1    5.56
#>  2    5.51
#>  3    5.87
#>  4    5.09
#>  5    3.57
#>  6    5.26
#>  7    7.22
#>  8    4.80
#>  9    6.71
#> 10    6.60
#> # ... with 990 more rows
#> 
#> $X
#> # A tibble: 1,000 x 4
#>    Intercept  .Reg1   Reg.2   Reg3.
#>        <dbl>  <dbl>   <dbl>   <dbl>
#>  1         1 -0.626  1.13   -0.886 
#>  2         1  0.184  1.11   -1.92  
#>  3         1 -0.836 -0.871   1.62  
#>  4         1  1.60   0.211   0.519 
#>  5         1  0.330  0.0694 -0.0558
#>  6         1 -0.820 -1.66    0.696 
#>  7         1  0.487  0.811   0.0535
#>  8         1  0.738 -1.91   -1.31  
#>  9         1  0.576 -1.25   -2.12  
#> 10         1 -0.305  0.998  -0.208 
#> # ... with 990 more rows
…
